{
    "name": "Controls",
    "maps": [
        {
            "name": "Character",
            "id": "bf5ff1cd-c529-4b20-bd39-f2f4f0056483",
            "actions": [
                {
                    "name": "Move",
                    "type": "Value",
                    "id": "d847b21a-fbe3-43d7-8523-24dd6b6cfbd7",
                    "expectedControlType": "Vector2",
                    "processors": "",
                    "interactions": "",
                    "initialStateCheck": true
                },
                {
                    "name": "Look",
                    "type": "Value",
                    "id": "e008998c-ad8c-4bd3-aeab-f6dafb8913bd",
                    "expectedControlType": "Vector2",
                    "processors": "",
                    "interactions": "",
                    "initialStateCheck": true
                }
            ],
            "bindings": [
                {
                    "name": "WSAD",
                    "id": "b36cfcc2-7538-48c1-ad7e-6527e8de556e",
                    "path": "2DVector",
                    "interactions": "",
                    "processors": "",
                    "groups": "",
                    "action": "Move",
                    "isComposite": true,
                    "isPartOfComposite": false
                },
                {
                    "name": "up",
                    "id": "ac7fb890-a164-4f56-9f9b-2a2de8cf9595",
                    "path": "<Keyboard>/w",
                    "interactions": "",
                    "processors": "",
                    "groups": "",
                    "action": "Move",
                    "isComposite": false,
                    "isPartOfComposite": true
                },
                {
                    "name": "down",
                    "id": "58663955-ee3c-4a5d-b775-158b65efd8f1",
                    "path": "<Keyboard>/s",
                    "interactions": "",
                    "processors": "",
                    "groups": "",
                    "action": "Move",
                    "isComposite": false,
                    "isPartOfComposite": true
                },
                {
                    "name": "left",
                    "id": "9c184c78-ef90-4488-8dcc-73c35de52cd4",
                    "path": "<Keyboard>/a",
                    "interactions": "",
                    "processors": "",
                    "groups": "",
                    "action": "Move",
                    "isComposite": false,
                    "isPartOfComposite": true
                },
                {
                    "name": "right",
                    "id": "9d9be6cd-a81e-4d3d-b861-d2fa70627eea",
                    "path": "<Keyboard>/d",
                    "interactions": "",
                    "processors": "",
                    "groups": "",
                    "action": "Move",
                    "isComposite": false,
                    "isPartOfComposite": true
                },
                {
                    "name": "",
                    "id": "a25e276c-5f54-4b2b-94d4-92c71c06d874",
                    "path": "<Mouse>/delta",
                    "interactions": "",
                    "processors": "",
                    "groups": "",
                    "action": "Look",
                    "isComposite": false,
                    "isPartOfComposite": false
                }
            ]
        },
        {
            "name": "Interactions",
            "id": "cc630fc7-8fb4-4528-abca-e5b583d77a29",
            "actions": [
                {
                    "name": "Primary",
                    "type": "Button",
                    "id": "0dd4d886-6151-404b-ae57-6fd5bd9aafd5",
                    "expectedControlType": "Button",
                    "processors": "",
                    "interactions": "",
                    "initialStateCheck": false
                },
                {
                    "name": "Secondary",
                    "type": "Button",
                    "id": "5aaf8ef2-1890-4992-849d-e793be7e4929",
                    "expectedControlType": "Button",
                    "processors": "",
                    "interactions": "",
                    "initialStateCheck": false
                },
                {
                    "name": "PrimaryHold",
                    "type": "Button",
                    "id": "50126cee-c324-4b4c-b16d-72f26ab4d614",
                    "expectedControlType": "Button",
                    "processors": "",
                    "interactions": "",
                    "initialStateCheck": false
                },
                {
                    "name": "SecondaryHold",
                    "type": "Button",
                    "id": "557435f5-d26a-48ae-84d0-34430ff23c8f",
                    "expectedControlType": "Button",
                    "processors": "",
                    "interactions": "",
                    "initialStateCheck": false
                }
            ],
            "bindings": [
                {
                    "name": "",
                    "id": "2674d5d6-99dc-48c4-b7c1-5eb4fce29628",
                    "path": "<Keyboard>/e",
                    "interactions": "Tap",
                    "processors": "",
                    "groups": "",
                    "action": "Primary",
                    "isComposite": false,
                    "isPartOfComposite": false
                },
                {
                    "name": "",
                    "id": "6f661ec8-347d-4783-922e-932a1362609e",
                    "path": "<Keyboard>/f",
                    "interactions": "Tap",
                    "processors": "",
                    "groups": "",
                    "action": "Secondary",
                    "isComposite": false,
                    "isPartOfComposite": false
                },
                {
                    "name": "",
                    "id": "7a42fb48-ec65-4d9c-8833-19fb4912cf3c",
                    "path": "<Keyboard>/e",
                    "interactions": "Hold",
                    "processors": "",
                    "groups": "",
                    "action": "PrimaryHold",
                    "isComposite": false,
                    "isPartOfComposite": false
                },
                {
                    "name": "",
                    "id": "603762eb-5557-48ac-a974-d101a91eee70",
                    "path": "<Keyboard>/f",
                    "interactions": "Hold",
                    "processors": "",
                    "groups": "",
                    "action": "SecondaryHold",
                    "isComposite": false,
                    "isPartOfComposite": false
                }
            ]
        }
    ],
    "controlSchemes": []
}